serial.vcd
$timescale 1 ns $end
$scope module top $end
$var wire 1 ! SERIAL $end
$var wire 1 " HSC $end
$var wire 1 # BUSY $end
$var wire 1 $ CS $end
$upscope $end
$enddefinitions $end
#0
1!
0"
0#
0$
#110500
1#
#245333
0#
#861333
0!
#1356666
1"
#1798833
1!
#1935833
1#
#2058666
1$
#2342666
0"
#2712166
0$
#2944666
0!
#2994333
0#
#3048833
1!
#3153000
0!
#3882166
1!
#4438000
1$
#4656500
1"
#5028000
0!
#5236333
1!
#5340500
0!
#5472166
1#
#5895833
0$
#5965500
1!
#6579500
0"
#6602833
1$
#7111333
0!
#7215500
1!
#7315166
0#
#7423833
0!
#8048833
1!
#8171500
0$
#9130333
1"
#9194666
0!
#9507166
1!
#9611333
0!
#9873666
1#
#9894000
0#
#10132166
1!
#10407833
1$
#10733000
1#
#11056833
0"
#11262833
0$
#11278000
0!
#11382166
1!
#11486333
0!
#11590500
1!
#11694666
0!
#11705333
0#
#11859833
1"
#12215500
1!
#12452333
0"
#12781666
1#
#12946000
1$
#13361333
0!
#13569666
1!
#13778000
0!
#14028666
0#
#14166500
1"
#14298833
1!
#14960500
0$
#15444666
0!
#15548833
1!
#15861333
0!
#16082500
0"
#16382166
1!
#16393333
1#
#17307166
1"
#17528000
0!
#17530333
1$
#17944666
1!
#18048833
0!
#18081333
0#
#18465500
1!
#19299166
0$
#19320500
1#
#19611333
0!
#19619833
0"
#19715500
1!
#19733666
1"
#19819666
0!
#20028000
1!
#20068833
0"
#20132166
0!
#20183500
0#
#20548833
1!
#20714833
1$
#20817666
1#
#21344166
1"
#21415500
0"
#21525166
0$
#21694666
0!
#21838500
1$
#21903000
1!
#22004166
0$
#22007166
0!
#22111333
1!
#22215500
0!
#22632166
1!
#23233333
0#
#23382666
1"
#23673000
0"
#23778000
0!
#23882166
1!
#24090500
0!
#24194666
1!
#24298833
0!
#24598000
1$
#24715500
1!
#24942500
1#
#25453333
1"
#25861333
0!
#26087333
0$
#26173833
1!
#26382166
0!
#26798833
1!
#26889666
0"
#27276666
0#
#27724166
1#
#27944666
0!
#28048833
1!
#28091500
1"
#28153000
0!
#28257166
1!
#28465500
0!
#28749500
1$
#28881333
0#
#28882166
1!
#29350666
0$
#29419833
0"
#30028000
0!
#30236333
1!
#30548833
0!
#30657666
1#
#30965500
1!
#31780000
1"
#32011500
1$
#32111333
0!
#32215500
1!
#32632166
0!
#32814333
0#
#33048833
1!
#33553833
0"
#34194666
0!
#34195000
0$
#34715500
1!
#34819666
0!
#34961333
1"
#35132166
1!
#35168000
1#
#35539166
1$
#36278000
0!
#36382166
1!
#36397666
0"
#36486333
0!
#36798833
1!
#36903000
0!
#37194833
0#
#37215500
1!
#37272000
0$
#38034166
1"
#38361333
0!
#38569666
1!
#38637166
1#
#38673833
0!
#38680000
1$
#38882166
1!
#38986333
0!
#39199166
0#
#39298833
1!
#39503666
0$
#40015166
1$
#40029666
0"
#40211000
1#
#40444666
0!
#40548833
1!
#40757166
0!
#40965500
1!
#41069666
0!
#41236833
0$
#41382166
1!
#42457666
1"
#42528000
0!
#42673000
0#
#42840500
1!
#42944666
0!
#43048833
1!
#43076166
0"
#43131500
1$
#43153000
0!
#43317000
1"
#43465500
1!
#44361666
0"
#44611333
0!
#44715500
1!
#44819666
0!
#44923833
1!
#45028000
0!
#45132166
1!
#45207000
1#
#45236333
0!
#45383500
0$
#45548833
1!
#45926833
1"
#46694666
0!
#46903000
1!
#46991166
0#
#47111333
0!
#47215500
1!
#47319666
0!
#47446666
0"
#47632166
1!
#47801000
1$
#47913000
0$
#48512166
1"
#48706166
0"
#48778000
0!
#48882166
1!
#49194666
0!
#49298833
1!
#49403000
0!
#49481166
1#
#49538333
1"
#49616833
1$
#49715500
1!
#49946666
0"
#50861333
0!
#51278000
1!
#51303333
0$
#51486333
0!
#51511833
0#
#51798833
1!
#52068666
1"
#52074666
1$
#52944666
0!
#53048833
1!
#53153000
0!
#53361333
1!
#53569666
0!
#53651000
0"
#53721166
1#
#53882166
1!
#53958333
0$
#54672500
1"
#54957833
1$
#55007166
0"
#55028000
0!
#55236333
1!
#55340500
0!
#55444666
1!
#55547666
0$
#55653000
0!
#55804666
0#
#55965500
1!
#56702833
1#
#56913500
1"
#57014333
1$
#57102166
0"
#57111333
0!
#57215500
1!
#57423833
0!
#57528000
1!
#57736333
0!
#58016000
0#
#58048833
1!
#58168000
1"
#58451333
0"
#58904666
0$
#59194666
0!
#59507166
1!
#59819666
0!
#60132166
1!
#60408833
1#
#60536166
1"
#60586333
0#
#60786500
1$
#61278000
0!
#61382166
1!
#61486333
0!
#61590500
1!
#61678000
0$
#61903000
0!
#62215500
1!
#62488166
0"
#63211666
1#
#63361333
0!
#63569666
1!
#63805666
1$
#63986333
0!
#64102166
0#
#64298833
1!
#64412666
1"
#65057000
1#
#65419666
0$
#65444666
0!
#65548833
1!
#66069666
0!
#66382166
1!
#66607833
0"
#66795833
0#
#66806333
1#
#67193833
1$
#67245333
0#
#67528000
0!
#68153000
1!
#68257166
0!
#68465500
1!
#68780666
1#
#68815666
1"
#69441833
0"
#69611333
0!
#69617166
1"
#69689833
0$
#69715500
1!
#69819666
0!
#70104333
0#
#70236333
1!
#70340500
0!
#70548833
1!
#71035000
1#
#71694666
0!
#71803500
0"
#71903000
1!
#71944500
0#
#72007166
0!
#72301500
1$
#72319666
1!
#72423833
0!
#72561166
1"
#72632166
1!
#72833000
0"
#72939000
0$
#73551333
1"
#73634500
1#
#73778000
0!
#73882166
1!
#74090500
0!
#74403000
1!
#74507166
0!
#74715500
1!
#74781000
1$
#75269666
0"
#75296333
0#
#75542500
0$
#75861333
0!
#76173833
1!
#76278000
0!
#76389333
1$
#76486333
1!
#76590500
0!
#76625000
1#
#76798833
1!
#77466500
0$
#77721000
1"
#77812833
0#
#77944666
0!
#78048833
1!
#78153000
0!
#78257166
1!
#78361333
0!
#78569666
1!
#78673833
0!
#78882166
1!
#79314000
1$
#80028000
0!
#80236333
1!
#80358333
0"
#80444666
0!
#80472666
1#
#80584166
0#
#80653000
1!
#80757166
0!
#80965500
1!
#81635333
0$
#82111333
0!
#82215500
1!
#82228833
1$
#82369666
1#
#82528000
0!
#82644666
1"
#82736333
1!
#82840500
0!
#83048833
1!
#83766500
0#
#84016833
1#
#84037666
0$
#84194666
0!
#84333000
0#
#84343166
1#
#84557166
0"
#84611333
1!
#84715500
0!
#84819666
1!
#84923833
0!
#85132166
1!
#85218666
1$
#86110000
1"
#86212166
0#
#86278000
0!
#86382166
1!
#86486333
0!
#86596833
0$
#86694666
1!
#86798833
0!
#86903000
1!
#86978166
0"
#87007166
0!
#87215500
1!
#87579166
1$
#88361333
0!
#88507333
1#
#88569666
1!
#88631833
1"
#88673833
0!
#88778000
1!
#88882166
0!
#88986333
1!
#89090500
0!
#89212333
0$
#89298833
1!
#90024000
0"
#90444666
0!
#90548833
1!
#90757166
0!
#90818833
0#
#90861333
1!
#90965500
0!
#91069666
1!
#91173833
0!
#91382166
1!
#91407666
1$
#92132666
1#
#92528000
0!
#92640166
1"
#92661833
0$
#92840500
1!
#93048833
0!
#93153000
1!
#93174833
0"
#93257166
0!
#93465500
1!
#94356833
0#
#94485333
1$
#94611333
0!
#94715500
1!
#94749666
1#
#94819666
0!
#94923833
1!
#95132166
0!
#95236333
1!
#95340500
0!
#95548833
1!
#95684333
1"
#96694666
0!
#96812000
0$
#96859666
0#
#96903000
1!
#97215500
0!
#97255333
0"
#97319666
1!
#97423833
0!
#97632166
1!
#97799166
1$
#98715000
0$
#98778000
0!
#98861500
1#
#98882166
1!
#99298833
0!
#99403000
1!
#99507166
0!
#99715500
1!
#99812833
0#
#99854333
1"
#100389500
1$
#100500166
1#
#100861333
0!
#101382166
1!
#101449166
0#
#101590500
0!
#101798833
1!
#101939666
0"
#102783500
1#
#102944666
0!
#102994666
0$
#103048833
1!
#103153000
0!
#103465500
1!
#103673833
0!
#103708500
1"
#103882166
1!
#105028000
0!
#105153166
0#
#105236333
1!
#105262500
0"
#105340500
0!
#105464333
1$
#105506666
1"
#105548833
1!
#105703666
1#
#105757166
0!
#105965500
1!
#106832666
0"
#107111333
0!
#107145500
0#
#107215500
1!
#107352333
0$
#107423833
0!
#107632166
1!
#107840500
0!
#107977666
1"
#108048833
1!
#109044166
1$
#109194666
0!
#109355500
0$
#109507166
1!
#109611333
0!
#109668333
1#
#109715500
1!
#109880000
0#
#109923833
0!
#109972666
0"
#110132166
1!
#110512833
1"
#110721500
1#
#111036000
0#
#111259333
1$
#111278000
0!
#111382166
1!
#111486333
0!
#111590500
1!
#111694666
0!
#111798833
1!
#111865833
0$
#112007166
0!
#112153000
0"
#112215500
1!
#112278833
1"
#112363666
1$
#112382166
1#
#113361333
0!
#113507333
0#
#113541000
0"
#113569666
1!
#113762500
0$
#113778000
0!
#113882166
1!
#114090500
0!
#114298833
1!
#115095666
1"
#115385833
1#
#115444666
0!
#115548833
1!
#115770666
1$
#115861333
0!
#115965500
1!
#116064166
0$
#116171166
0"
#116173833
0!
#116273666
1$
#116322500
0$
#116382166
1!
#116702333
0#
#117528000
0!
#117667333
1"
#117705833
1#
#117944666
1!
#118025500
1$
#118088000
0#
#118101333
1#
#118257166
0!
#118296333
0"
#118465500
1!
#119243666
0$
#119611333
0!
#119715500
1!
#119819666
0!
#119854166
1$
#120028000
1!
#120340500
0!
#120441666
0$
#120548833
1!
#120594500
0#
#120887500
1"
#121694666
0!
#121903000
1!
#122007166
0!
#122111333
1!
#122208000
1#
#122423833
0!
#122550500
0"
#122632166
1!
#122864333
0#
#123044000
1$
#123778000
0!
#123882166
1!
#123939166
0$
#124065333
1"
#124090500
0!
#124194666
1!
#124507166
0!
#124715500
1!
#125330166
1#
#125489333
1$
#125861333
0!
#125983000
0#
#126056000
0"
#126173833
1!
#126590500
0!
#126798833
1!
#127088666
1"
#127167833
1#
#127510166
0$
#127918500
0#
#127944666
0!
#127959166
1#
#128048833
1!
#128153000
0!
#128257166
1!
#128578000
1$
#128673833
0!
#128882166
1!
#129224833
0"
#130028000
0!
#130049500
0#
#130072666
0$
#130236333
1!
#130250000
1$
#130541500
1"
#130757166
0!
#130936666
1#
#130965500
1!
#131537500
0"
#132111333
0!
#132215500
1!
#132380500
1"
#132598000
0$
#132773666
1$
#132840500
0!
#133048833
1!
#133216000
0#
#133765000
0"
#133986500
0$
#134072000
1#
#134194666
0!
#134235000
0#
#134459833
1#
#134632000
0#
#134783000
1$
#134833333
1"
#134923833
1!
#135028000
0!
#135132166
1!
#135525333
1#
#136111833
0"
#136278000
0!
#136382166
1!
#136486333
0!
#136687833
0#
#137007166
1!
#137088333
1"
#137111333
0!
#137215500
1!
#137332833
0$
#138361333
0!
#138569666
1!
#138570166
0"
#138673833
0!
#139009000
1$
#139090500
1!
#139173833
1#
#139194666
0!
#139298833
1!
#139933166
0$
#140325500
0#
#140444666
0!
#140548833
1!
#140757166
0!
#141173833
1!
#141206500
1"
#141278000
0!
#141382166
1!
#141504666
0"
#141661666
1#
#141870500
1"
#142482666
0#
1$
#142528000
0!
#142528166
0$
#142534833
1#
#142633166
0"
#142840500
1!
#142944666
0!
#143205833
0#
#143257166
1!
#143361333
0!
#143465500
1!
#143800666
1$
#144489333
1#
#144601166
0$
#144611333
0!
#144715500
1!
#144783500
1"
#144819666
0!
#144923833
1!
#145028000
0!
#145177166
0"
#145340500
1!
#145444666
0!
#145548833
1!
#145815500
1$
#145941333
1"
#146442500
0"
#146694666
0!
#146867500
0$
#146903000
1!
#146906666
0#
#147111333
0!
#147423833
1!
#147517833
1#
#147528000
0!
#147632166
1!
#147742666
1"
#148358333
1$
#148778000
0!
#148882166
1!
#149194666
0!
#149507166
1!
#149547166
0#
#149611333
0!
#149639666
0"
#149715500
1!
#150368333
1#
#150801666
0$
#150861333
0!
#151239833
1"
#151278000
1!
#151382166
0!
#151590500
1!
#151694666
0!
#151798833
1!
#152226500
0#
#152299500
1$
#152944666
0!
#153048833
1!
#153153000
0!
#153242166
1#
#153347000
0#
#153361333
1!
#153465500
0!
#153474333
0"
#153673833
1!
#153778000
0!
#153882166
1!
#154385000
1"
#154540166
0$
#154889000
1#
#155007166
1$
#155028000
0!
#155236333
1!
#155340500
0!
#155444666
1!
#155548833
0!
#155757166
1!
#155861333
0!
#155946500
0#
#155965500
1!
#156848666
0"
#157111333
0!
#157215500
1!
#157355666
0$
#157423833
0!
#157528000
1!
#157632166
0!
#157840500
1!
#157944666
0!
#158045500
1#
#158048833
1!
#158411166
1$
#158662333
1"
#159194666
0!
#159507166
1!
#159574333
0#
#159715500
0!
#159923833
1!
#160028000
0!
#160132166
1!
#160159000
0$
#160369333
1$
#160574333
0"
#161278000
0!
#161382166
1!
#161486333
0!
#161590500
1!
#161798833
0!
#161799500
1#
#161963166
1"
#162007166
1!
#162111333
0!
#162215500
1!
#162468500
0$
#162709333
0#
#163361333
0!
#163569666
1!
#163642000
0"
#163882166
0!
#164090500
1!
#164194666
0!
#164298833
1!
#164810500
1$
#165130000
1"
#165300166
1#
#165444666
0!
#165500000
0$
#165548833
1!
#165714833
1$
#165915500
0#
#165965500
0!
#166052333
0"
#166173833
1!
#166278000
0!
#166317833
1"
#166382166
1!
#167067333
0"
#167129333
0$
#167528000
0!
#167771000
1#
#167804666
1"
#168048833
1!
#168153000
0!
#168257166
1!
#168361333
0!
#168465500
1!
#169106500
0"
#169470333
0#
#169484500
1$
#169568166
0$
#169611333
0!
#169715500
1!
#169819666
0!
#170132166
1!
#170236333
0!
#170340500
1!
#170444666
0!
#170548833
1!
#171121500
1#
#171454833
1$
#171694666
0!
#171816666
1"
#171843166
0"
#171903000
1!
#172007166
0!
#172121333
1"
#172215500
1!
#172319666
0!
#172396833
0"
#172423833
1!
#172493166
0$
#172528000
0!
#172632166
1!
#172700833
1$
#173276500
0$
#173300333
1$
#173478500
0#
#173778000
0!
#173882166
1!
#173908333
1#
#174090500
0!
#174298833
1!
#174403000
0!
#174507166
1!
#174530000
0#
#174611333
0!
#174715500
1!
#174926166
1"
#175665166
0$
#175737000
1#
#175766666
0#
#175861333
0!
#175960500
0"
#176173833
1!
#176278000
0!
#176382166
1!
#176419000
1"
#176486333
0!
#176590500
1!
#176694666
0!
#176798833
1!
#176905500
0"
#177310833
1#
#177608666
0#
#177944666
0!
#178048833
1!
#178153000
0!
#178257166
1!
#178265666
1$
#178361333
0!
#178465500
1!
#178569666
0!
#178673833
1!
#178778000
0!
#178882166
1!
#179003333
1"
#179214666
0$
#179769500
0"
#179927000
1#
#180028000
0!
#180236333
1!
#180336000
1$
#180444666
0!
#180548833
1!
#180653000
0!
#180757166
1!
#180861333
0!
#180965500
1!
#181012166
1"
#181193000
0"
#181616166
0$
#182111333
0!
#182215500
1!
#182267666
0#
#182528000
0!
#182632166
1!
#182655666
1$
#182736333
0!
#182840500
1!
#182944666
0!
#182999500
1"
#183048833
1!
#183178333
0$
#183814333
1$
#183818000
1#
#184194666
0!
#184492500
0#
#184585000
0"
#184611333
1!
#184819666
0!
#184923833
1!
#185028000
0!
#185132166
1!
#185282500
1#
#186278000
0!
#186343500
0$
#186382166
1!
#186486333
0!
#186558666
1$
#186694666
1!
#186903000
0!
#186912166
0$
#186964833
1"
#187007166
1!
#187111333
0!
#187215500
1!
#187257333
0#
#187488833
0"
#187698333
1$
#188342000
1"
#188361333
0!
#188458666
1#
#188569666
1!
#188673833
0!
#188725833
0"
#188778000
1!
#188986333
0!
#189090500
1!
#189194666
0!
#189287166
0#
#189298833
1!
#189421500
0$
#190103500
1$
#190444666
0!
#190548833
1!
#190757166
0!
#190842500
1"
#190861333
1!
#191069666
0!
#191170833
0$
#191173833
1!
#191278000
0!
#191382166
1!
#191726666
1#
#192528000
0!
#192579333
1$
#192840500
1!
#193153000
0!
#193257166
1!
#193361333
0!
#193412000
0"
#193465500
1!
#193601333
0#
#193946833
1"
#194087333
0$
#194611333
0!
#194715500
1!
#194796166
1#
#194819666
0!
#194923833
1!
#194942500
0#
#195236333
0!
#195340500
1!
#195380500
1#
#195444666
0!
#195548833
1!
#195802000
0"
#196088666
0#
#196128000
1$
#196694666
0!
#196903000
1!
#197319666
0!
#197423833
1!
#197528000
0!
#197632166
1!
#198303833
1#
#198479833
0$
#198480833
1"
#198778000
0!
#198882166
1!
#199004666
1$
#199187166
0$
#199403000
0!
#199507166
1!
#199560666
0"
#199611333
0!
#199638166
0#
#199715500
1!
#200790000
1$
#200861333
0!
#200998666
1"
#201001500
1#
#201486333
1!
#201694666
0!
#201798833
1!
#202485500
0"
#202757333
0$
#202944666
0!
#203048833
1!
#203153000
0!
#203492333
0#
#203569666
1!
#203778000
0!
#203882166
1!
#204407666
1"
#204449500
1#
#204864500
1$
#205028000
0!
#205196500
0#
#205236333
1!
#205340500
0!
#205653000
1!
#205861333
0!
#205965500
1!
#206426166
0$
#206497333
1#
#206508000
0"
#207111333
0!
#207134833
0#
#207215500
1!
#207423833
0!
#207736333
1!
#207944666
0!
#208048833
1!
#208075666
1$
#208341500
1#
#209095666
1"
#209110833
0$
#209194666
0!
#209507166
1!
#209611333
0!
#209814500
0#
#209819666
1!
#210028000
0!
#210132166
1!
#210219666
0"
#211218000
1"
#211278000
0!
#211382166
1!
#211446000
1$
#211486333
0!
#211590500
1!
#211691000
1#
#211694666
0!
#211903000
1!
#212111333
0!
#212215500
1!
#212324166
0"
#212900000
0$
#213097500
0#
#213361333
0!
#213569666
1!
#213673166
1"
#213778000
0!
#213986333
1!
#214194666
0!
#214298333
0"
#214298833
1!
#214492000
1#
#215237666
1$
#215444666
0!
#215548833
1!
#215618000
0$
#215657000
1"
#215861333
0!
#216069666
1!
#216278000
0!
#216382166
1!
#216717666
1$
#216744166
0"
#217012000
0#
#217496666
1#
#217528000
0!
#217897833
0$
#217944666
1!
#218020166
0#
#218048833
0!
#218153000
1!
#218361333
0!
#218465500
1!
#218470666
1"
#219299666
0"
#219562833
1"
#219611333
0!
#219715500
1!
#219819666
0!
#220028000
1!
#220132166
0!
#220172500
1#
#220178833
1$
#220236333
1!
#220444666
0!
#220548833
1!
#220849666
0"
#220894333
1"
#221135166
0"
#221694666
0!
#221786333
1"
#221881333
0$
#221903000
1!
#222007166
0!
#222111333
1!
#222215500
0!
#222222500
0"
#222319666
1!
#222453500
0#
#222495500
1$
#222528000
0!
#222632166
1!
#223475666
1"
#223778000
0!
#223882166
1!
#224090500
0!
#224194666
1!
#224226500
0"
#224267500
1#
#224298833
0!
#224339500
0#
#224403000
1!
#224495833
0$
#224611333
0!
#224715500
1!
#225073833
1#
#225861333
0!
#226173833
1!
#226382166
0!
#226486333
1!
#226666166
1$
#226694666
0!
#226798833
1!
#226942166
1"
#227295833
0"
#227327666
0#
#227753333
0$
#227775500
1$
#227944666
0!
#228048833
1!
#228153000
0!
#228257166
1!
#228371166
1#
#228465500
0!
#228569666
1!
#228778000
0!
#228882166
1!
#229019166
0#
#229078333
1"
#230028000
0!
#230220666
0$
#230236333
1!
#230407333
1$
#230548833
0!
#230653000
1!
#230861333
0!
#230965500
1!
#231320666
0$
#231354333
0"
#231434333
1#
#232048666
0#
#232111333
0!
#232132666
1$
#232215500
1!
#232512666
0$
#232632166
0!
#232698333
1"
#232736333
1!
#232944666
0!
#233048833
1!
#233168833
1$
#233475166
1#
#234014666
0"
#234194666
0!
#234223000
0#
#234501333
1"
#234715500
1!
#234981333
1#
#235028000
0!
#235132166
1!
#235463666
0$
#235734166
1$
#235973666
0"
#236278000
0!
#236382166
1!
#236486333
0!
#236798833
1!
#237102000
0$
#237111333
0!
#237215500
1!
#237537833
0#
#238102166
1#
#238190166
1"
#238361333
0!
#238569666
1!
#238673833
0!
#238882166
1!
#239194666
0!
#239298833
1!
#239817000
1$
#239927000
0"
#240143333
0#
#240444666
0!
#240548833
1!
#240757166
0!
#240965500
1!
#241072000
1"
#241224333
0$
#241278000
0!
#241382166
1!
#241930500
0"
#242286000
1#
#242528000
0!
#242840500
1!
#242944666
0!
#243048833
1!
#243361333
0!
#243465500
1!
#243643833
1$
#244269666
0#
#244556166
1"
#244611333
0!
#244715500
1!
#244819666
0!
#244923833
1!
#245028000
0!
#245132166
1!
#245327500
1#
#245444666
0!
#245548833
1!
#245596666
0$
#245710500
0"
#246571500
1$
#246694666
0!
#246903000
1!
#247111333
0!
#247215500
1!
#247314166
0$
#247366833
1$
#247472500
0$
#247528000
0!
#247632166
1!
#247774666
0#
#247904333
1"
#247992166
0"
#248030833
1$
#248248833
1#
#248268500
0#
#248389666
1"
#248778000
0!
#248882166
1!
#249194666
0!
#249222333
1#
#249298833
1!
#249611333
0!
#249715500
1!
#249999666
0"
#250487000
0$
#250861333
0!
#251278000
1!
#251437833
0#
#251574333
1"
#251694666
0!
#251798833
1!
#252944666
0!
#253048833
1!
#253153000
0!
#253192666
1$
#253361333
1!
#253757333
1#
#253778000
0!
#253832000
0"
#253882166
1!
#253951500
0#
#254371166
1#
#254530833
0$
#255028000
0!
#255236333
1!
#255340500
0!
#255444666
1!
#255861333
0!
#255965500
1!
#256273000
1"
#256666166
1$
#256990833
0#
#257111333
0!
#257215500
1!
#257339666
0"
#257423833
0!
#257528000
1!
#257944666
0!
#258048833
1!
#258415833
0$
#259059833
1#
#259194666
0!
#259507166
1!
#259748833
1"
#260028000
0!
#260132166
1!
#260363500
0"
#261107000
1"
#261142666
1$
#261267833
0$
#261278000
0!
#261358333
0"
#261382166
1!
#261486333
0!
#261502666
0#
#261590500
1!
#262011333
1$
#262111333
0!
#262215500
1!
#262241000
0$
#262347333
1$
#262422500
1"
#262873166
1#
#263361333
0!
#263564166
0$
#263569666
1!
#263933500
0"
#264194666
0!
#264298833
1!
#264514500
0#
#265444666
0!
#265548833
1!
#265550833
1$
#265959500
1"
#266206833
0"
#266278000
0!
#266382166
1!
#266559000
0$
#266757000
1#
#267474000
1"
#267491666
0"
#267528000
0!
#268034333
1"
#268251666
0"
#268361333
1!
#268547333
0#
#268633166
1$
#268899333
1"
#268938166
1#
#269611333
0!
#269715500
1!
#269819666
0!
#270078500
0#
#270186666
0"
#270234333
0$
#270444666
1!
#270598333
1"
#270926666
1#
#271133833
0#
#271313166
0"
#271514000
1#
#271613333
1"
#271694666
0!
#271903000
1!
#272007166
0!
#272076666
1$
#272528000
1!
#273220166
0#
#273778000
0!
#273882166
1!
#274090500
0!
#274164333
0"
#274473833
0$
#274528500
1"
#274611333
1!
#275076333
1$
#275261000
1#
#275861333
0!
#276066000
0$
#276173833
1!
#276278000
0!
#276544000
0"
#276694666
1!
#276726166
0#
#277684666
1$
#277944666
0!
#278048833
1!
#278109833
1"
#278113166
1#
#278153000
0!
#278208666
0$
#278257166
1!
#278361333
0!
#278778000
1!
#279312000
0"
#279680333
0#
#280028000
0!
#280236333
1!
#280444666
0!
#280544166
1$
#280675333
0$
#280861333
1!
#280988833
1"
#281474166
1#
#281826666
1$
#282111333
0!
#282215500
1!
#282528000
0!
#282944666
1!
#283114833
0"
#283886666
0$
#283912000
0#
#284194666
0!
#284611333
1!
#284715500
0!
#284970166
1$
#285028000
1!
#285136166
1"
#285287666
1#
#285934166
0$
#286278000
0!
#286356166
0"
#286382166
1!
#286486333
0!
#286694666
1!
#286719833
0#
#286798833
0!
#286838333
1$
#286997166
0$
#287009333
1#
#287046333
1$
#287111333
1!
#287388000
1"
#288361333
0!
#288371500
0#
#288510666
0$
#288569666
1!
#288673833
0!
#288778000
1!
#288882166
0!
#289040000
0"
#289194666
1!
#289836666
1$
#289914166
1#
#290444666
0!
#290548833
1!
#290757166
0!
#290861333
1!
#290965500
0!
#291278000
1!
#291628000
0$
#291682166
1"
#292111833
0#
#292113666
0"
#292130000
1"
#292528000
0!
#292840500
1!
#292967833
1$
#293048833
0!
#293361333
1!
#293981666
0"
#294176666
0$
#294271166
1$
#294279166
1#
#294611333
0!
#294715500
1!
#294819666
0!
#294923833
1!
#295132166
0!
#295444666
1!
#295590666
0#
#295891333
1"
#296078500
0$
#296694666
0!
#296903000
1!
#297215500
0!
#297528000
1!
#297839166
0"
#297888000
1#
#298111166
1$
#298167000
0#
#298778000
0!
#298882166
1!
#299298833
0!
#299551000
1#
#299611333
1!
#300404166
0$
#300468500
1"
#300517000
1$
#300861333
0!
#301382166
1!
#301486333
0!
#301644500
0$
#301694666
1!
#301828833
0#
#301991166
1$
#302787166
0$
#302839000
0"
#302944666
0!
#303048833
1!
#303153000
0!
#303465500
1!
#303569666
0!
#303778000
1!
#303892000
1$
#304206666
1#
#305028000
0!
#305040166
1"
#305236333
1!
#305340500
0!
#305348000
0"
#305462500
1"
#305515833
0$
#305548833
1!
#305563166
1$
#305653000
0!
#305861333
1!
#306219500
0$
#306559000
0"
#306637500
0#
#307083500
1"
#307111333
0!
#307215500
1!
#307423833
0!
#307632166
1!
#307736333
0!
#307944666
1!
#308253666
1$
#308626833
0"
#308894166
1#
#309194666
0!
#309507166
1!
#309611333
0!
#309715500
1!
#309819666
0!
#310028000
1!
#310681833
1"
#310837333
0"
#310902333
0$
#311278000
0!
#311364500
0#
#311382166
1!
#311486333
0!
#311590500
1!
#311694666
0!
#311798833
1!
#311903000
0!
#311992833
1#
#312111333
1!
#312528000
1"
#313313500
1$
#313361333
0!
#313569666
1!
#313748500
0#
#313778000
0!
#313882166
1!
#313904500
0$
#313986333
0!
#314194666
1!
#314945500
0"
#314975166
1#
#315337000
1"
#315444666
0!
#315548833
1!
#315861333
0!
#315965500
1!
#316069666
0!
#316278000
1!
#316334166
0"
#316579833
1$
#317412333
0#
#317444166
1#
#317449833
0#
#317528000
0!
#317944666
1!
#318153000
0!
#318252500
0$
#318361333
1!
#318802833
1"
#319025500
1#
#319165333
0"
#319303500
1"
#319611333
0!
#319715500
1!
#319819666
0!
#319967333
1$
#320028000
1!
#320171833
0"
#320236333
0!
#320316666
0#
#320328000
0$
#320444666
1!
#320657666
1"
#321333666
1#
#321694666
0!
#321903000
1!
#322007166
0!
#322111333
1!
#322319666
0!
#322357666
0#
#322528000
1!
#322680666
0"
#322744500
1$
#322758000
0$
#323015333
1$
#323778000
0!
#323882166
1!
#324090500
0!
#324194666
1!
#324222000
1"
#324323500
1#
#324403000
0!
#324611333
1!
#324944333
0$
#324952166
0"
#325526333
0#
#325692333
1"
#325849500
0"
#325861333
0!
#326101333
1$
#326173833
1!
#326486333
0!
#326694666
1!
#326992833
0$
#327447000
1#
#327905166
1"
#327944666
0!
#328048833
1!
#328153000
0!
#328257166
1!
#328514666
1$
#328569666
0!
#328594666
0#
#328778000
1!
#329138500
0$
#329883666
1#
#329970500
1$
#330023166
0"
#330028000
0!
#330236333
1!
#330331833
0$
#330653000
0!
#330861333
1!
#331675166
0#
#331878833
1"
#332111333
0!
#332215500
1!
#332452500
1$
#332701000
0"
#332736333
0!
#332772666
1"
#332944666
1!
#333258166
0"
#333546833
1"
#333963666
1#
#334194666
0!
#334300500
0#
#334603000
1#
#334729000
0$
#334819666
1!
#334869166
0"
#334923833
0!
#335028000
1!
#335818833
0#
#336278000
0!
#336382166
1!
#336486333
0!
#336710500
1$
#336759833
1"
#336903000
1!
#337007166
0!
#337111333
1!
#337582000
1#
#337620666
0$
#338082500
1$
#338293333
0"
#338361333
0!
#338569666
1!
#338673833
0!
#338986333
1!
#339090500
0!
#339194666
1!
#339443166
0#
#339485333
0$
#340047833
1"
#340048666
1$
#340444666
0!
#340548833
1!
#340650666
0$
#340757166
0!
#341069666
1!
#341173833
0!
#341278000
1!
#341495333
1$
#341999166
1#
#342319166
0"
#342526500
0#
#342528000
0!
#342840500
1!
#342944666
0!
#343061333
1"
#343153000
1!
#343257166
0!
#343361333
1!
#343388666
0"
#343979333
0$
#344017833
1#
#344611333
0!
#344715500
1!
#344819666
0!
#344844666
1$
#344923833
1!
#345028000
0!
#345236333
1!
#345340500
0!
#345444666
1!
#346020500
1"
#346668000
0#
#346694666
0!
#346903000
1!
#346944500
0$
#347111333
0!
#347319666
1!
#347423833
0!
#347528000
1!
#347660500
1$
#348602000
0"
#348773166
0$
#348778000
0!
#348882166
1!
#348898166
1"
#348988166
1#
#349194666
0!
#349403000
1!
#349507166
0!
#349611333
1!
#349642166
0"
#349827333
1"
#350861333
0!
#350926333
0#
#351159166
1$
#351278000
1!
#351382166
0!
#351486333
1!
#351590500
0!
#351694666
1!
#351758000
0"
#351922500
1#
#352508500
1"
#352944666
0!
#353048833
1!
#353144500
0$
#353153000
0!
#353353166
1$
#353361333
1!
#353465500
0!
#353486500
0"
#353569666
1!
#353673833
0!
#353778000
1!
#354136833
0#
#354370333
0$
#354705000
1"
#354931333
1#
#355028000
0!
#355236333
1!
#355340500
0!
#355444666
1!
#355548833
0!
#355653000
1!
#355680166
0"
#355757166
0!
#355861333
1!
#356385166
1$
#356499500
0#
#357088500
1#
#357111333
0!
#357215500
1!
#357423833
0!
#357466166
1"
#357528000
1!
#357632166
0!
#357736333
1!
#357840500
0!
#357944666
1!
#358516500
0#
#359072333
0$
#359194666
0!
#359283833
1#
#359464000
0"
#359507166
1!
#359715500
0!
#359819666
1!
#359923833
0!
#360028000
1!
#360057666
0#
#361045333
1$
#361069666
1"
#361278000
0!
#361382166
1!
#361486333
0!
#361590500
1!
#361798833
0!
#361828833
1#
#361903000
1!
#362007166
0!
#362111333
1!
#363262500
0$
#363361333
0!
#363365500
0"
#363569666
1!
#363882166
0!
#363884333
0#
#363986333
1!
#364090500
0!
#364194666
1!
#364683500
1$
#365444666
0!
#365448666
1#
#365548833
1!
#365965500
0!
#365988500
1"
#366069666
1!
#366173833
0!
#366278000
1!
#367071833
0"
#367396000
0$
#367419500
0#
#367528000
0!
#368048833
1!
#368257166
0!
#368361333
1!
#369121000
1#
#369194666
1"
#369449666
1$
#369611333
0!
#369650666
0"
